x, y
4.104038772213247, 0.07863695937090431
4.160581583198708, -0.015727391874180863
4.2465266558966075, -0.11795543905635647
4.375444264943457, -0.31454783748361725
4.445557350565428, -0.40891218872870244
4.502100161550889, -0.4954128440366972
4.5609046849757675, -0.6212319790301442
4.637802907915994, -0.7155963302752293
4.673990306946688, -0.8099606815203144
4.7667205169628435, -1.0458715596330275
4.818739903069467, -1.2110091743119265
4.888852988691438, -1.399737876802097
4.850403877221325, -1.2975098296199212
4.9453957996768985, -1.6277850589777194
4.995153473344104, -1.8086500655307993
5.006462035541196, -1.8794233289646132
5.02907915993538, -1.9973787680209696
5.051696284329564, -2.1231979030144164
5.065266558966075, -2.201834862385321
5.078836833602585, -2.296199213630406
5.083360258481422, -2.382699868938401
5.090145395799677, -2.477064220183486
5.087883683360259, -2.571428571428571
5.090145395799677, -2.6657929226736563
5.090145395799677, -2.7601572739187414
5.08562197092084, -2.893840104849279
5.074313408723748, -3.003931847968545
5.07205169628433, -3.09829619921363
5.060743134087238, -3.184796854521625
5.049434571890146, -3.27916120576671
5.02907915993538, -3.389252948885976
5.015508885298869, -3.475753604193971
4.995153473344104, -3.570117955439056
4.9725363489499195, -3.6880733944954125
4.954442649434572, -3.7981651376146783
4.927302100161551, -3.8532110091743115
4.90016155088853, -3.971166448230668
4.859450726978999, -4.065530799475753
4.818739903069467, -4.159895150720838
4.780290791599354, -4.262123197903014
4.689822294022617, -4.458715596330275
4.655896607431341, -4.55307994757536
4.558642972536349, -4.765399737876802
4.608400646203554, -4.663171690694626
4.502100161550889, -4.859764089121887
4.441033925686591, -4.969855832241153
4.389014539579968, -5.064220183486238
4.330210016155089, -5.150720838794233